*** Life<FredkinCell> 13x15 ***

Generation = 0, Population = 106.
--00000----0-0-
00-00--000-00--
---000---0-0-0-
000-0-0000-00--
-0-000-00-000--
0--0-000-0-0--0
00--0000--00-00
00-0--0-00-0000
-00-00-0-000-0-
-0-0--0--00----
--00-00-0000-0-
00------0-00-00
0-0---000-0-0--

Generation = 1000, Population = 84.
++-+---+++-+---
----++-++++----
+-+---++-+-+---
+---+--+---+++-
-+--+++----++++
-+++--+------++
-+++---+-----++
-------++---+++
++-----+--++--+
--+-+-++++-+++-
++---------++-+
-+-+++----++++-
-+--++--+-++---

Generation = 2000, Population = 101.
++-+-+--+-++---
---+++--+++-+-+
--+++++++++++++
++------+-++-++
+-+-+-+-+-+---+
-+--+++-+---+-+
---++-+--++-++-
---+--+--++-+--
--+-++-+-+++--+
++-++--+++-++--
----++++--++--+
+++++--++-++---
-++++--+++-----

*** Life<FredkinCell> 11x11 ***

Generation = 0, Population = 103.
0-0-00--000
00-00000000
0-000000-00
00-0000-000
00000-00000
0000000000-
0000000-000
000000-0000
00-00000-00
-0000000000
00000-0000-

Generation = 1000, Population = 61.
+-+--+-+-+-
+--++--+---
+--+-4++-++
++---++-++-
---+-+-++++
4--++--+---
-+1---+++--
-++-++---++
++--+--+--+
--1+--+++-+
--++++-+++-

Generation = 2000, Population = 61.
+-+--+-+-+-
+--++--+---
+--+-4++-++
++---++-++-
---+-+-++++
4--++--+---
-+1---+++--
-++-++---++
++--+--+--+
--1+--+++-+
--++++-+++-

*** Life<FredkinCell> 15x13 ***

Generation = 0, Population = 101.
0000-0-00-000
00--0-0-00-00
00---------00
00000000---00
0-0000--0---0
0-----0-00-0-
--00--0-00000
--000-0-0-00-
00000000---00
--00-0-00--0-
-000--00---0-
---000-0-00--
00--0-0-----0
-0---0--0-0--
-----0-0-0-00

Generation = 1000, Population = 94.
+-+-------+-+
--+--++--++-+
+-++-+-+-++-+
++++-++-----+
++--+++--+-++
+--+----++-+-
--+++-+---++-
+-+++---+-+-+
-+---+-+-----
-+-+--+--+--+
--+++++---+--
-+++-+++-+---
---++++-++--+
++--++-++++--
+-++---+++--+

Generation = 2000, Population = 107.
+-+++-+--+-+-
---+++-+++-+-
++-+++-+++-++
+-++-----+-+-
+++--++-+-+++
-++++-+++--+-
+++++-+++---+
+--++--++---+
+-++-----+-+-
++++++--+--+-
+++++++--++++
----++-++-+-+
-++--++-++--+
+-+------+---
+-++-+--+-+--

*** Life<FredkinCell> 15x13 ***

Generation = 0, Population = 108.
----0000-0-0-
--0----00-000
-0---0-----0-
0--000-00000-
0--0000-0--00
00-000--00-00
000-00-00--0-
00-00-0-0-0-0
-0000--000000
00-000-000---
--00-000000-0
--0-0--0--00-
--00----0-0--
--0-000-00--0
-00--00-0000-

Generation = 1000, Population = 97.
++++++----+--
----+---+-+++
+-++--++-+--+
+++-+++++---+
++---++++-+--
-+--+---+-+-+
--++++++--+--
---+++-++-+-+
-++-+++-----+
++++--+-+-+++
-+-+--++-+-++
---+-++-+-+-+
+++----+-----
-+-++-+-+---+
++--+--+---+-

Generation = 2000, Population = 89.
+-+++++------
+--+--+---+-+
---+---+-+-+-
---++++-+--++
-+-+++-++----
-+++---+-++--
---+--+--+--+
++---++-++-++
---+-+--++-++
++-----+++---
+-+-+++++---+
+--++-+---+--
--+---+-+--++
+-+--++---+--
-+-++-++-++++

*** Life<FredkinCell> 12x12 ***

Generation = 0, Population = 81.
0-0--0-00000
-0---000--0-
000--00-000-
0-00---0-00-
--00000000-0
00--00-0--00
000-0-000000
---00-0--000
0-0----0-0-0
0-------00--
-000-00--00-
000-0-0-0--0

Generation = 1000, Population = 73.
-++++-----++
++----+-+---
++--+-+--+-+
+-++-+--+---
+-+-++--+++-
-+-+++-+-+--
---++--+++++
+++---++-+--
-+-+--++++++
---+---+++--
-+++--++----
+++-+-+++-++

Generation = 2000, Population = 76.
---++-+++-+-
-+-++-+++++-
-+-++----+--
++++-+--+++-
++-+-+++--+-
-++----+++++
--+--+-+--+-
++-+-+-+-+--
-+--+++++++-
++++-+--++--
-++-+-----+-
++++++-+----

*** Life<FredkinCell> 14x11 ***

Generation = 0, Population = 96.
0-00-0-000-
00-0--00--0
0-------0-0
--000000-0-
0-000--0000
000-0--0-0-
00-00-000-0
0000-0-0-00
-000000000-
0000-0-00-0
0--0-000-00
0-0--000000
00---00--00
--000---0-0

Generation = 1000, Population = 64.
-----+--+--
-----+---+-
-++-+---+--
-----++-+--
+++++--++-+
-++-+---+++
-+-++-+++++
+-+-----+--
----++---+-
+---+-++---
+---++--+--
-++---+--+-
+++-++--+--
+-+-+-++++-

Generation = 2000, Population = 71.
++++--++-+-
-+----++--+
-+-+++++-+-
-+----+-+--
-+-+--++---
+-+-+++--++
-+---+-----
-+--++-+-+-
-+-+---+--+
----+--++--
-++++-++-+-
-+--+--+-+-
-+-++--+++-
++---++++++

*** Life<FredkinCell> 12x14 ***

Generation = 0, Population = 109.
--000000000---
0-0--0000-000-
-00--00000000-
0---0000-000-0
-0000-0-00-0--
000-00-0-00--0
000-00-0-000-0
00--0000000-00
-0-000-0--000-
0----0-0000-0-
-00---00000000
0--00-000-0-00

Generation = 1000, Population = 84.
++-+--+++-++--
-+---++-+--+++
++++++-++--++-
+--+-+++-----+
+--+--++--++--
-+-----+++++--
+--+--+---++--
++----+-+--+-+
+-+-+-+-+--+-+
+++-+++++--+--
-+++-++--+---+
+-+-+--+-+-+-+

Generation = 2000, Population = 79.
+--+----+-----
+-+++--+--++--
+++++++++-+-++
++--++++----+-
--++-+++---++-
+++--+++---+--
+------+-+-+++
-+-----+--++--
+---++-++--+--
++++-++-+-++--
-+-++-+++-+-+-
+---+--------+

*** Life<FredkinCell> 14x14 ***

Generation = 0, Population = 97.
0000-0--00---0
--0---000---0-
000000000--00-
00--0-0---00--
-00---0-0----0
-0-0---0-0--00
00-0-000-00-00
0-00000---00--
---0-0-0-00--0
0---0--0----0-
0000000----0--
--000-000---0-
----0--0000-00
--0-0--0000---

Generation = 1000, Population = 97.
++-+--+-+-+-++
+-++--+-+---+-
++++--+-++---+
----+++-++----
++++-++-+-++--
++-++++--+++--
---++-+--++-+-
-+-+-+-++--++-
--++--+-+-++--
-+-+-+-------+
-+++-+-+-+---+
++---++++-++--
+-+-+---++++-+
++------+--+++

Generation = 2000, Population = 99.
+------+++-+-+
--+-+++--+----
++++---+-+++++
-+++--++--+++-
----++-++----+
+---+-+-+-+-++
-+--++----+++-
+++---++++----
++--+----++--+
+-+++---++---+
+--+-+-++++-+-
+---+++---+---
++++-+++-+-+-+
-++++-++--++-+

*** Life<FredkinCell> 11x13 ***

Generation = 0, Population = 84.
000-00-00-0-0
-00000---0-00
--000-0-0--0-
--0-0--00-0--
0-00-00-00-00
---0-00--0---
-0--000--0---
00-0000--0000
00000000--000
00--0-0-0-0-0
0-000000000--

Generation = 1000, Population = 80.
+-+++---+-+++
+++---+----+-
+-+----+---++
+-+++--++-+-+
+++-+--++++++
-+-++----++++
+++-+++++--++
++-++--+--++-
+-----++--+-+
+-+++-++++--+
-++-+----+++-

Generation = 2000, Population = 67.
-+---+-+-+---
---+--+--++++
+--+--+-----+
---++---+--+-
++-+-+--++---
-+++-+-+-++-+
++-+---+++-+-
--+-----++++-
-++-++-+-++++
-+++++--+-+--
+++-++-+-+---

*** Life<FredkinCell> 13x14 ***

Generation = 0, Population = 80.
---0---0--000-
---0000-----0-
0-0---00-----0
00--00-000--0-
0--000-0--0000
----000--00-0-
-00-0---00-0--
----0-0---00--
--0--00-0--0--
---0-0-0000-00
---00-0-----00
0---0---0-0000
00----0-000--0

Generation = 1000, Population = 80.
+-++---+++++--
+++-++-+++---+
-----+--+----+
-+++--------++
-++-++-----+++
+---+----+-+--
+++-+++--+-+-+
++------+--++-
-++--++------+
----++---+-+-+
-----++++-+---
+-++++-+-++---
+-+++-+--+--+-

Generation = 2000, Population = 93.
--+-+-+-+-+-++
--+++-+++-++--
+----+---+---+
-++++--+-----+
+-+++--+-++--+
-+++--+-+++++-
++-+-+-----+--
++-+-+++--++-+
-+--+--+--+++-
-+++++++---+--
-++++-+------+
++-++-++-+-+-+
+-+--+-+++-++-

